…
             "decimalLongitude",
             "decimalLatitude",
             "scientificName",
             "phylum",
             "date_year",
             "individualCount")
filename <- get_current()
x <- arrow::open_dataset(filename)
y = x %>% 
  dplyr::select(all_of(col_keep)) %>% 
  dplyr::collect() %>%
  dplyr::as_tibble() %>%
  dplyr::filter(dplyr::filter(!is.na(individualCount), !is.na(date_year)))
y
# # A tibble: 24,950,921 × 7
#    id         decimalLongitude decimalLatitude scientificName   phylum date_year
#    <chr>                 <dbl>           <dbl> <chr>            <chr>      <int>
#  1 73630bc3-…             2.81            51.4 Prochromadorell… Nemat…      1999
#  2 d3b0ab96-…             2.81            51.4 Prochromadorell… Nemat…      1999
#  3 5595aab3-…             2.81            51.4 Prochromadorell… Nemat…      1999
#  4 f1df8c74-…             2.81            51.4 Prochromadorell… Nemat…      1999
#  5 18ee7e4f-…             2.81            51.4 Prochromadorell… Nemat…      1999
#  6 50bc0d79-…             2.81            51.4 Prochromadorell… Nemat…      1999
#  7 efe8ffd1-…             2.81            51.4 Prochromadorell… Nemat…      1999
#  8 e6c181f4-…             2.81            51.4 Prochromadorell… Nemat…      1999
#  9 3bf93db6-…             2.81            51.4 Prochromadorell… Nemat…      1999
# 10 1b6d7c94-…             2.81            51.4 Prochromadorell… Nemat…      1999
# # … with 24,950,911 more rows, and 1 more variable: individualCount <chr>
```
…
